<?xml version="1.0" encoding="utf-8"?>
<svg width="60px" height="60px" viewBox="0 0 60 60" version="1.1" xmlns:xlink="http://www.w3.org/1999/xlink" xmlns="http://www.w3.org/2000/svg">
  <desc>Created with Lunacy</desc>
  <g id="facebook" transform="translate(1.660034 1.659912)">
    <path d="M1.98133 3.87336C1.98133 4.37737 1.98133 6.62697 1.98133 6.62697L0 6.62697L0 9.99409L1.98133 9.99409L1.98133 20L6.05139 20L6.05139 9.99437L8.7826 9.99437C8.7826 9.99437 9.03838 8.37986 9.16237 6.61456C8.80689 6.61456 6.06678 6.61456 6.06678 6.61456C6.06678 6.61456 6.06678 4.65567 6.06678 4.31232C6.06678 3.96822 6.51054 3.50537 6.94914 3.50537C7.38692 3.50537 8.31089 3.50537 9.16667 3.50537C9.16667 3.04693 9.16667 1.46292 9.16667 0C8.02422 0 6.7245 0 6.15159 0C1.88072 -0.000232498 1.98133 3.37024 1.98133 3.87336Z" transform="translate(23 18)" id="Facebook" fill="#005CC7" stroke="none" />
    <path d="M28 56C43.464 56 56 43.464 56 28C56 12.536 43.464 0 28 0C12.536 0 0 12.536 0 28C0 43.464 12.536 56 28 56Z" id="Oval-8" fill="none" stroke="#005CC7" stroke-opacity="0.2" stroke-width="1" />
  </g>
</svg>