<?xml version="1.0" encoding="utf-8"?>
<svg width="60px" height="60px" viewBox="0 0 60 60" version="1.1" xmlns:xlink="http://www.w3.org/1999/xlink" xmlns="http://www.w3.org/2000/svg">
  <desc>Created with Lunacy</desc>
  <g id="telegram" transform="translate(1.660034 1.659912)">
    <path d="M4.96167 9.78613L0.353259 8.11455C-0.114808 7.94409 -0.118874 7.3019 0.347859 7.12696L19.2609 0.0363123C19.6618 -0.114389 20.0756 0.226988 19.9882 0.6362L16.5941 16.5026C16.5141 16.8772 16.0622 17.0471 15.7432 16.8218L11.11 13.5527C10.8286 13.3542 10.4451 13.3648 10.1758 13.578L7.607 15.6132C7.3088 15.8501 6.85953 15.7181 6.7454 15.3611L4.96167 9.78613ZM15.4645 3.50535L6.45793 8.89631C6.11273 9.10337 5.9502 9.5085 6.06173 9.88778L7.03553 13.2131C7.10467 13.4488 7.4566 13.4246 7.49014 13.1811L7.74334 11.3575C7.79107 11.0142 7.9596 10.6979 8.22087 10.4616L15.6539 3.74675C15.7929 3.62145 15.6263 3.40875 15.4645 3.50535Z" transform="translate(17 21)" id="XMLID_497_" fill="#005CC7" fill-rule="evenodd" stroke="none" />
    <path d="M28 56C43.464 56 56 43.464 56 28C56 12.536 43.464 0 28 0C12.536 0 0 12.536 0 28C0 43.464 12.536 56 28 56Z" id="Oval-8-Copy-2" fill="none" stroke="#005CC7" stroke-opacity="0.2" stroke-width="1" />
  </g>
</svg>