<?xml version="1.0" encoding="utf-8"?>
<svg width="14px" height="14px" viewBox="0 0 14 14" version="1.1" xmlns:xlink="http://www.w3.org/1999/xlink" xmlns="http://www.w3.org/2000/svg">
  <desc>Created with Lunacy</desc>
  <path d="M13.993 1.4C13.993 0.63 13.37 0 12.6 0L1.4 0C0.63 0 0 0.63 0 1.4L0 9.8C0 10.57 0.63 11.2 1.4 11.2L11.2 11.2L14 14L13.993 1.4ZM2.79999 4.20005L11.2 4.20005L11.2 2.80005L2.79999 2.80005L2.79999 4.20005ZM11.2 6.2999L2.79999 6.2999L2.79999 4.8999L11.2 4.8999L11.2 6.2999ZM2.79999 8.4L11.2 8.4L11.2 7L2.79999 7L2.79999 8.4Z" id="Shape" fill="#FFFFFF" fill-rule="evenodd" stroke="none" />
</svg>